Confirmation,PO,Starts_Date,Lot,Plan,Install_Date,Address,Turned_In_By,Turn_In_Date,Verified_By,Order_Date,Window_Count,Patio_Door_Count,Rolling_Wall_Count,Install_Revenue,Sales_Total,Elevation,Model,Total_Units,Capacity,Arrival_Date_AD,Latest_Order_Date,Base_Contract_Price,Option_Pricing,fk_supers,Install_Material_Cost,Install_Labor_Cost,House_Package_Cost,Manufacturer,XOBranch,InstType,XORep,Builder,Subdivision,Super,Supers_Phone,TurnIn_Reported,Completion_Date,Completion_Verified_By
100173,PHMI20141,4/13/2017,201,4028-8,5/2/2017,6507 W MARK LN,103,4/18/2017,109,NULL,20,0,2,2160,11057,C,Yes,NULL,NULL,5/1/2017,4/19/2017,3522,7535,302,NULL,NULL,NULL,104,1,123,103,141,302,NULL,NULL,NULL,NULL,NULL
100188,PHAL20156,5/3/2017,7041,NULL,7/11/2017,7769 S RESEDA ST,NULL,NULL,NULL,NULL,NULL,NULL,NULL,NULL,NULL,NULL,No,NULL,NULL,NULL,NULL,NULL,NULL,106,NULL,NULL,NULL,101,1,106,104,147,106,John,4806257909,NULL,NULL,NULL
100231,PHMI20199,5/10/2017,43,3527,6/13/2017,10234 W OWNELY AVE,105,5/30/2017,108,NULL,20,1,0,760,3187,D,No,NULL,NULL,6/12/2017,5/31/2017,3187,NULL,283,NULL,NULL,NULL,104,1,106,105,118,283,,,NULL,NULL,NULL
100248,PHMI20216,8/16/2017,56,NULL,8/8/2017,123 SAM ST,NULL,NULL,NULL,NULL,NULL,NULL,NULL,NULL,NULL,NULL,No,NULL,NULL,NULL,NULL,NULL,NULL,113,NULL,NULL,NULL,104,1,117,105,149,113,Shane,4804218075,NULL,NULL,NULL
100256,PHMI20224,8/16/2017,200,203,NULL,2615 S SMITH ST,NULL,NULL,NULL,NULL,NULL,NULL,NULL,NULL,NULL,C,No,NULL,NULL,NULL,NULL,NULL,NULL,113,NULL,NULL,NULL,104,1,117,105,149,113,Shane,4804218075,NULL,NULL,NULL
100257,PHMI20225,9/20/2017,27421,4019-7,10/9/2017,26090 W WAHALLA LN,103,9/20/2017,NULL,NULL,13,1,0,490,3041,A,No,NULL,NULL,NULL,NULL,2573,468,214,NULL,NULL,NULL,104,1,122,103,141,214,Kohl,6232383966,NULL,NULL,NULL
100258,PHMI20226,9/20/2017,210,NULL,NULL,2615 N HAPPY LN,NULL,NULL,NULL,NULL,NULL,NULL,NULL,NULL,NULL,NULL,No,NULL,NULL,NULL,NULL,NULL,NULL,113,NULL,NULL,NULL,104,1,117,105,149,113,Shane,4804218075,NULL,NULL,NULL
100259,PHMI20227,9/20/2017,3501,4019-8,10/9/2017,28809 N 64TH DR,103,9/21/2017,NULL,NULL,8,1,0,389,2667,A,No,NULL,NULL,NULL,NULL,2667,0,302,NULL,NULL,NULL,104,1,123,103,141,302,Ryan,4802529253,NULL,NULL,NULL
100260,PHMI20228,9/20/2017,486,2725,10/9/2017,20139 W TONTO ST,103,9/21/2017,NULL,NULL,22,1,0,1156,4626,A,No,NULL,NULL,NULL,NULL,4626,0,134,NULL,NULL,NULL,104,1,119,103,107,134,Ben,4803415853,NULL,NULL,NULL
100261,PHMI20229,9/20/2017,5201,5526-7,10/9/2017,9462 W WEEPING WILLOW RD,103,9/21/2017,NULL,NULL,16,2,0,730,4855,B,No,NULL,NULL,NULL,NULL,3615,1240,407,NULL,NULL,NULL,104,1,122,103,141,407,Mike,6232290990,NULL,NULL,NULL
100262,TUMI20230,9/20/2017,1026,4016-5,10/9/2017,13959 E VIA CERRO DEL MOLINO,103,9/21/2017,NULL,NULL,8,1,0,306,2401,B,No,NULL,NULL,NULL,NULL,2207,194,308,NULL,NULL,NULL,104,2,123,103,142,308,Ron,5207306473,NULL,NULL,NULL
100263,PHMI20231,9/20/2017,37,4,10/9/2017,8686 E EASTWOOD CIR,103,9/20/2017,NULL,NULL,24,2,0,1192,7791.61,C,No,NULL,NULL,NULL,NULL,5692,2099.61,200,NULL,NULL,NULL,104,1,106,103,124,200,Doug,4802723084,NULL,NULL,NULL
100264,PHAL20232,9/20/2017,2019,4547,11/3/2017,10333 W BUCKHORN TR,NULL,NULL,NULL,NULL,NULL,NULL,NULL,NULL,NULL,D,No,NULL,NULL,NULL,NULL,NULL,NULL,281,NULL,NULL,NULL,101,1,106,104,147,281,Todd ,4809800814,NULL,NULL,NULL
100265,PHMI20233,10/6/2017,634,4506,10/6/2017,3149 N LOMA VISTA,NULL,NULL,NULL,NULL,NULL,NULL,NULL,NULL,NULL,H,No,NULL,NULL,NULL,NULL,NULL,NULL,275,NULL,NULL,NULL,104,1,106,105,149,275,Tyler,6028033173,NULL,NULL,NULL
100266,PHMI20234,9/20/2017,30,4560,10/9/2017,5510 E MORING VISTA LN,104,9/5/2017,NULL,NULL,64,1,1,2086,25292,T,No,NULL,NULL,9/18/2017,NULL,10525,14767,129,NULL,NULL,NULL,104,1,117,104,131,129,Tim,6026944100,NULL,NULL,NULL
100267,PHAL20235,9/20/2017,2020,5081,11/3/2017,10329 W BUCKHORN TR,NULL,NULL,NULL,NULL,NULL,NULL,NULL,NULL,NULL,D,No,NULL,NULL,NULL,NULL,NULL,NULL,281,NULL,NULL,NULL,101,1,106,104,147,281,Todd ,4809800814,NULL,NULL,NULL
100294,PHAL20262,10/19/2017,222,1254,NULL,1245 N YES RD,NULL,NULL,NULL,NULL,NULL,NULL,NULL,NULL,NULL,A,No,NULL,NULL,NULL,NULL,NULL,NULL,103,NULL,NULL,NULL,101,1,106,104,147,103,Greg,6023993015,NULL,NULL,NULL
100295,PHMI20263,10/19/2017,222,1245,NULL,222 N HI LANE,NULL,NULL,NULL,NULL,NULL,NULL,NULL,NULL,NULL,K,No,NULL,NULL,NULL,NULL,NULL,NULL,100,NULL,NULL,NULL,104,1,117,101,122,100,Terry,6026795582,NULL,NULL,NULL
140509,PHAL19254,3/16/2017,3011,4014,4/11/2017,10378 W BAJADA RD,103,3/21/2017,109,3/20/2017,20,1,0,660,3212,A,No,21,24,4/4/2017,3/23/2017,3097,115,280,273,204,2395.68,101,1,106,104,147,280,Trent,6024992808,NULL,NULL,NULL
140826,PHAL19571,3/28/2017,3024,4073,4/21/2017,10423 W BAJADA RD,104,4/4/2017,109,4/4/2017,14,1,0,492,2463,A,No,15,18,4/18/2017,4/6/2017,2463,0,280,195,300,1833.03,101,1,106,104,147,280,Trent,6024992808,NULL,NULL,NULL
141176,PHMI19921,3/28/2017,168,5,8/17/2017,246 N SANDAL,103,4/4/2017,108,4/12/2017,24,1,0,796,3938,A CORNER,No,25,28,4/27/2017,4/5/2017,3320,618,113,306,200,2463.67,104,1,117,105,149,113,Shane,4804218075,NULL,NULL,NULL
142404,TUMI21149,3/28/2017,2,2218,6/16/2017,7576 E PIMA ST,107,4/4/2017,109,6/5/2017,15,2,0,625,3733,A,Yes,0,23,6/15/2017,6/5/2017,3733,0,450,NULL,NULL,NULL,104,2,104,107,140,450,Tim,5202401930,NULL,NULL,NULL
jobsite,jobsite?,jobsite,jobsite,jobsite,,jobsite,processing?,processing?,processing?,,,,,,,,,,"window count
and date 'capacity'
still used",,,,,,,,,,,,,,,,,,,
