ID,Issue
101,"Builder Error"
102,"Builder Redline"
103,HNR
104,Install
105,Miscellaneous
106,"Patio Door Overstock"
107,Purchasing
108,"R/O Issues"
109,"Rolling Wall Overstock"
110,Sales
111,Shop
112,Start
113,"Supplier B/O - Damage"
114,"Window Overstock"
