ID,fk_confirmation,Effective_date,Note_Category,Note,Entered_By,createORupdate_time
1,141176,2017-05-28,Install,"Kevin talked to Super - Install date changed from 05-22-2017 to 05-28-2017 on 07-12-2017 by lking",lking,"2017-07-12 14:35:05"
2,141176,2017-05-28,Jobsite,"Completed Javier",lking,"2017-07-14 09:32:00"
3,141176,2017-07-14,Jobsite,"New note added",lking,"2017-07-14 12:36:42"
4,141176,2017-07-14,Install,"Kevin talked to super - Install date changed from 05-28-2017 to 07-14-2017 on 07-14-2017 by lking",lking,"2017-07-14 13:53:41"
5,141176,2017-08-18,Install,"OK, per kevin, Selina - Install date changed from 07-14-2017 to 08-18-2017 on 07-14-2017 by lking",lking,"2017-07-14 13:55:52"
6,141176,2017-08-08,Install,"House not ready - Install date changed from 08-18-2017 to 08-08-2017 on 07-17-2017 by lking",lking,"2017-07-17 15:17:12"
7,100173,2017-05-02,Install,"Initial Install Date - Install date changed from 07-20-2017 to 05-02-2017 on 08-02-2017 by lking",lking,"2017-08-02 12:11:18"
8,100248,2017-08-10,Install," - Install date changed from 08-09-2017 to 08-10-2017 on 08-04-2017 by lking",lking,"2017-08-04 08:11:46"
9,100248,2017-08-08,Install,"Supply Pro update - Install date changed from 08-10-2017 to 08-08-2017 on 08-04-2017 by lking",lking,"2017-08-04 08:18:38"
10,141176,2017-08-15,Install,"Because I said so - Install date changed from 08-08-2017 to 08-15-2017 on 08-04-2017 by cgalla",cgalla,"2017-08-04 10:16:47"
11,141176,2017-08-31,Install,"KSDKJFP - Install date changed from 08-15-2017 to 08-31-2017 on 08-08-2017 by rmartinez",rmartinez,"2017-08-08 09:58:31"
15,141176,2017-08-09,Deleted-Jobsite,"adding note updating",lking,"2017-08-09 09:24:20"
16,141176,2017-08-17,Install,"said it was ok - Install date changed from 08-31-2017 to 08-17-2017 on 08-16-2017 by lking",lking,"2017-08-16 12:48:19"
17,141176,2017-08-17,Jobsite,"alberto - 8080 ox need to level concrete",lking,"2017-08-17 15:37:33"
18,141176,2017-08-17,Jobsite,"alberto - 8050 xox vent broken on install",lking,"2017-08-17 15:38:07"
19,141176,2017-08-17,Jobsite,"alberto - 6050 xo frame damaged on install need to reorder",lking,"2017-08-17 15:38:47"
20,100266,2017-09-20,Jobsite,"THIS IS A TRIAL ENTRY,SC.",Scabrera,"2017-09-20 15:25:35"
21,100266,2017-09-20,Jobsite,"K THIS IS THE SECOND NOTE LETS SEE IF IT SAVES",Scabrera,"2017-09-20 15:33:48"
